<svg xmlns="http://www.w3.org/2000/svg" width="67" height="66" viewBox="0 0 67 66">
    <g fill="none" fill-rule="evenodd">
        <path fill="#DFE7EB" d="M39.208 54.237v-4.8H27.291v4.8l-5.968 3.108h23.853z"/>
        <path stroke="#A3B0BF" stroke-linecap="round" stroke-linejoin="round" stroke-width="1.5" d="M39.208 54.237v-4.8H27.291v4.8l-5.968 3.108h23.853z"/>
        <path fill="#FFF" d="M65.75 37.536h-65V5.325A4.575 4.575 0 0 1 5.325.75h55.85a4.575 4.575 0 0 1 4.575 4.575v32.21z"/>
        <path stroke="#A3B0BF" stroke-linecap="round" stroke-linejoin="round" stroke-width="1.5" d="M65.75 37.536h-65V5.325A4.575 4.575 0 0 1 5.325.75h55.85a4.575 4.575 0 0 1 4.575 4.575v32.21z"/>
        <path fill="#DFE7EB" d="M5.325 49.436h55.85a4.574 4.574 0 0 0 4.575-4.574v-7.327h-65v7.328a4.575 4.575 0 0 0 4.575 4.573"/>
        <path stroke="#A3B0BF" stroke-linecap="round" stroke-linejoin="round" stroke-width="1.5" d="M5.325 49.436h55.85a4.574 4.574 0 0 0 4.575-4.574v-7.327h-65v7.328a4.575 4.575 0 0 0 4.575 4.573z"/>
        <path fill="#FFF" d="M33.318 45.667a2.204 2.204 0 0 1-2.203-2.2 2.204 2.204 0 0 1 4.407 0c0 1.213-.989 2.2-2.204 2.2"/>
        <path stroke="#FF5969" stroke-linecap="round" stroke-linejoin="round" stroke-width="1.5" d="M5.625 64.584h40.083M16.458 62.42v2.164M20.791 62.42v2.164M25.125 62.42v2.164M30.541 62.42v2.164M39.208 62.42v2.164M34.875 62.42v2.164M43.541 62.42v2.164M12.125 62.42v2.164M7.791 62.42v2.164"/>
        <path fill="#FFCBD0" d="M63.064 62.988c0-2.734-2.22-4.896-4.958-4.896H54.8c-2.737 0-4.957 2.162-4.957 4.896 0 .912.74 1.595 1.653 1.595h9.915c.912 0 1.652-.683 1.652-1.595"/>
        <path stroke="#FF5969" stroke-linecap="round" stroke-linejoin="round" stroke-width="1.5" d="M63.064 62.988c0-2.734-2.22-4.896-4.958-4.896H54.8c-2.737 0-4.957 2.162-4.957 4.896 0 .912.74 1.595 1.653 1.595h9.915c.912 0 1.652-.683 1.652-1.595z"/>
        <path stroke="#DFE7EB" stroke-linecap="round" stroke-width="1.5" d="M34.875 12.651h21.667M34.875 19.143h21.667M34.875 25.634h21.667"/>
        <path stroke="#FF5969" stroke-linecap="round" stroke-linejoin="round" stroke-width="1.5" d="M40.291 10.487v4.328M51.125 16.979v4.328M44.625 23.47V27.8"/>
        <path fill="#FFCBD0" d="M22.642 17.095c0 2.262-1.802 4.096-4.024 4.096-2.223 0-4.023-1.834-4.023-4.096 0-2.263 1.8-4.097 4.022-4.097 2.223 0 4.024 1.834 4.024 4.097"/>
        <path stroke="#FF5969" stroke-linecap="round" stroke-linejoin="round" stroke-width="1.5" d="M22.642 17.095c0 2.262-1.802 4.096-4.024 4.096-2.223 0-4.023-1.834-4.023-4.096 0-2.263 1.8-4.097 4.022-4.097 2.223 0 4.024 1.834 4.024 4.097z"/>
        <path fill="#FFCBD0" d="M18.618 29.384c2.775 0 5.287-1.145 7.106-2.994-1.018-3.017-3.797-5.199-7.106-5.199-3.308 0-6.088 2.182-7.106 5.2 1.82 1.848 4.332 2.993 7.106 2.993"/>
        <path stroke="#FF5969" stroke-linecap="round" stroke-linejoin="round" stroke-width="1.5" d="M18.618 29.384c2.775 0 5.287-1.145 7.106-2.994-1.018-3.017-3.797-5.199-7.106-5.199-3.308 0-6.088 2.182-7.106 5.2 1.82 1.848 4.332 2.993 7.106 2.993z"/>
        <path stroke="#FF5969" stroke-linecap="round" stroke-linejoin="round" stroke-width="1.5" d="M18.618 29.384c-5.555 0-10.06-4.585-10.06-10.241s4.505-10.241 10.06-10.241c5.556 0 10.059 4.585 10.059 10.24 0 5.657-4.503 10.242-10.06 10.242z"/>
    </g>
</svg>
